%YAML 1.1
%TAG !u! tag:unity3d.com,2011:
--- !u!1001 &1847608160009523932
PrefabInstance:
  m_ObjectHideFlags: 0
  serializedVersion: 2
  m_Modification:
    m_TransformParent: {fileID: 0}
    m_Modifications:
    - target: {fileID: 2404509634320249686, guid: 4bf1b9c9bea9d384db03255d159333f1,
        type: 3}
      propertyPath: m_Name
      value: bullet_2
      objectReference: {fileID: 0}
    - target: {fileID: 6925223148663169399, guid: 4bf1b9c9bea9d384db03255d159333f1,
        type: 3}
      propertyPath: m_LocalPosition.x
      value: 0
      objectReference: {fileID: 0}
    - target: {fileID: 6925223148663169399, guid: 4bf1b9c9bea9d384db03255d159333f1,
        type: 3}
      propertyPath: m_LocalPosition.y
      value: 0
      objectReference: {fileID: 0}
    - target: {fileID: 6925223148663169399, guid: 4bf1b9c9bea9d384db03255d159333f1,
        type: 3}
      propertyPath: m_LocalPosition.z
      value: 0
      objectReference: {fileID: 0}
    - target: {fileID: 6925223148663169399, guid: 4bf1b9c9bea9d384db03255d159333f1,
        type: 3}
      propertyPath: m_LocalRotation.x
      value: 0
      objectReference: {fileID: 0}
    - target: {fileID: 6925223148663169399, guid: 4bf1b9c9bea9d384db03255d159333f1,
        type: 3}
      propertyPath: m_LocalRotation.y
      value: 0
      objectReference: {fileID: 0}
    - target: {fileID: 6925223148663169399, guid: 4bf1b9c9bea9d384db03255d159333f1,
        type: 3}
      propertyPath: m_LocalRotation.z
      value: 0
      objectReference: {fileID: 0}
    - target: {fileID: 6925223148663169399, guid: 4bf1b9c9bea9d384db03255d159333f1,
        type: 3}
      propertyPath: m_LocalRotation.w
      value: 1
      objectReference: {fileID: 0}
    - target: {fileID: 6925223148663169399, guid: 4bf1b9c9bea9d384db03255d159333f1,
        type: 3}
      propertyPath: m_RootOrder
      value: 0
      objectReference: {fileID: 0}
    - target: {fileID: 6925223148663169399, guid: 4bf1b9c9bea9d384db03255d159333f1,
        type: 3}
      propertyPath: m_LocalEulerAnglesHint.x
      value: 0
      objectReference: {fileID: 0}
    - target: {fileID: 6925223148663169399, guid: 4bf1b9c9bea9d384db03255d159333f1,
        type: 3}
      propertyPath: m_LocalEulerAnglesHint.y
      value: 0
      objectReference: {fileID: 0}
    - target: {fileID: 6925223148663169399, guid: 4bf1b9c9bea9d384db03255d159333f1,
        type: 3}
      propertyPath: m_LocalEulerAnglesHint.z
      value: 0
      objectReference: {fileID: 0}
    - target: {fileID: 8335280957687264254, guid: 4bf1b9c9bea9d384db03255d159333f1,
        type: 3}
      propertyPath: m_Sprite
      value: 
      objectReference: {fileID: 21300000, guid: 89164fc92c34589479e606efe70f88fa,
        type: 3}
    - target: {fileID: 5803176400182493071, guid: 4bf1b9c9bea9d384db03255d159333f1,
        type: 3}
      propertyPath: m_Size.x
      value: 0.35
      objectReference: {fileID: 0}
    - target: {fileID: 5803176400182493071, guid: 4bf1b9c9bea9d384db03255d159333f1,
        type: 3}
      propertyPath: m_Size.y
      value: 0.75
      objectReference: {fileID: 0}
    m_RemovedComponents: []
  m_SourcePrefab: {fileID: 100100000, guid: 4bf1b9c9bea9d384db03255d159333f1, type: 3}
